{
  "Object": "Cards",
  "ObjectId": "O9",
  "ObjectData": [
    {
      "name" : "cards",
      "object_name": "Rect",
      "width": 12,
      "open_new_row": 1,
      "id" : 9,
      "data" : [
        {"title" : "Users", "number" : "123"},
        {"title" : "Guests", "number" : "456"},
        {"title" : "Pages", "number" : "789"}
      ]
    }
  ]
}

























