{
  "Object" : "Table",
  "ObjectId" : "O1",
  "ObjectData" : [
    {
      "name" : "cards",
      "id" : 0,
      "data" : [
        {"title" : "Users", "number" : "123"},
        {"title" : "Guests", "number" : "456"},
        {"title" : "Pages", "number" : "789"}
      ]
    },

    {
      "name" : "table",
      "id" : 3,
      "data" : {
        "headers" : ["Name", "Lastname", "Username", "Phone", "Email"],
        "content" : [
          { "name": "Mark", "lastname": "Otto", "username": "@mdo", "phone": "59411994", "email": "otto@mail.com" },
          { "name": "Jacob", "lastname": "Thornton", "username": "@fat", "phone": "55499126", "email": "jacob@mail.com" },
          { "name": "Mary", "lastname": "the Bird", "username": "@twitter", "phone": "3159694", "email": "mary@mail.com" },
          { "name": "Marv", "lastname": "Bond", "username": "@marvo", "phone": "98456152", "email": "marv@mail.com" },
          { "name": "Larry", "lastname": "Cardl", "username": "@lurie", "phone": "69851195", "email": "larry@mail.com" },
          { "name": "Jennifer", "lastname": "Minelly", "username": "@jen", "phone": "396784", "email": "jenny@mail.com" },
          { "name": "Sly", "lastname": "Stall", "username": "@sly", "phone": "9564842", "email": "sly@mail.com" },
          { "name": "Arnold", "lastname": "Percy", "username": "@arnie", "phone": "1236978", "email": "arnie@mail.com" },
          { "name": "Jack", "lastname": "Black", "username": "@blacko", "phone": "63248895", "email": "blacko@mail.com" }
        ]
      }
    }
  ]
}